…
And let’s take a quick peek at what that looks like…

``` r
w_finals_df
#> # A tibble: 36 x 9
#>     Rank Name        Nation Fencing    Swimming   Riding   LaserRun  `MP Points`
#>    <dbl> <chr>       <chr>  <chr>      <chr>      <chr>    <chr>           <dbl>
#>  1     1 "PROKOPENK… BLR    "246 (1)\… "251 (35)… "275 (3… "581 (1)…        1353
#>  2     2 "CLOUVEL E… FRA    "220 (8)\… "292 (1)\… "286 (1… "543 (6)…        1341
#>  3     3 "GULYAS Mi… HUN    "233 (3)\… "286 (4)\… "285 (2… "535 (10…        1339
#>  4     4 "SCHLEU An… GER    "214 (14)… "270 (15)… "293 (9… "553 (4)…        1330
#>  5     5 "MICHELI E… ITA    "214 (13)… "285 (5)\… "286 (1… "539 (8)…        1324
#>  6     6 "LANGREHR … GER    "227 (5)\… "267 (22)… "293 (1… "537 (9)…        1324
#>  7     7 "VEGA Tama… MEX    "214 (15)… "270 (16)… "297 (5… "542 (7)…        1323
#>  8     8 "KHOKHLOVA… UKR    "227 (7)\… "267 (21)… "298 (4… "520 (14…        1312
#>  9     9 "KOHLMANN … GER    "220 (9)\… "271 (14)… "300 (1… "515 (16…        1306
#> 10    10 "ASADAUSKA… LTU    "212 (17)… "269 (18)… "255 (3… "567 (2)…        1303
#> # … with 26 more rows, and 1 more variable: Time Difference <chr>
```
…
w_mp_finals
#> # A tibble: 36 x 20
#>     rank name         uipm_id dob    nation fencing_pts fencing_pos fencing_wins
#>    <dbl> <chr>        <chr>   <chr>  <chr>  <chr>       <chr>       <chr>       
#>  1     1 PROKOPENKO … W039969 1985-… BLR    246         1           24          
#>  2     2 CLOUVEL Elo… W039469 1989-… FRA    220         8           20          
#>  3     3 GULYAS Mich… W042365 2000-… HUN    233         3           22          
#>  4     4 SCHLEU Anni… W003945 1990-… GER    214         14          19          
#>  5     5 MICHELI Ele… W040837 1999-… ITA    214         13          19          
#>  6     6 LANGREHR Re… W040067 1998-… GER    227         5           21          
#>  7     7 VEGA Tamara  W039422 1993-… MEX    214         15          19          
#>  8     8 KHOKHLOVA I… W039606 1990-… UKR    227         7           21          
#>  9     9 KOHLMANN Ja… W002853 1990-… GER    220         9           20          
#> 10    10 ASADAUSKAIT… W002054 1984-… LTU    212         17          18          
#> # … with 26 more rows, and 12 more variables: fencing_losses <chr>,
#> #   swim_pts <chr>, swim_pos <chr>, swim_time <chr>, riding_pts <chr>,
#> #   riding_pos <chr>, riding_score <chr>, laser_run_pts <chr>, lr_pos <chr>,
#> #   lr_time <chr>, mp_points <dbl>, time_difference <chr>
```
…
If we had any doubts about my misunderstanding the way that the time
difference plays into the final ranking, the men’s finals make it clear
that I am most definitely wrong. 😬

What makes me so sure? Well, given they’re supposed to cross the finish
line in the order of their ranking, `finish_time` would go lowest to
highest/match the order of `rank`, below.

``` r
m_mp_finals %>%
  select(c(rank, lr_pos, lr_time, time_difference, finish_time))
#> # A tibble: 36 x 5
#>     rank lr_pos lr_time  time_difference finish_time             
#>    <dbl>  <dbl> <chr>    <Duration>      <Duration>              
#>  1     1     19 12:03.50 0s              723.5s (~12.06 minutes) 
#>  2     2     25 12:10.30 9s              739.3s (~12.32 minutes) 
#>  3     3      1 11:16.90 18s             694.9s (~11.58 minutes) 
#>  4     4      4 11:36.13 23s             719.13s (~11.99 minutes)
#>  5     5     10 11:44.10 26s             730.1s (~12.17 minutes) 
#>  6     6      5 11:37.00 28s             725s (~12.08 minutes)   
#>  7     7     22 12:05.70 30s             755.7s (~12.6 minutes)  
#>  8     8      7 11:38.10 32s             730.1s (~12.17 minutes) 
#>  9     9      3 11:35.20 34s             729.2s (~12.15 minutes) 
#> 10    10      2 11:25.10 37s             722.1s (~12.04 minutes) 
#> # … with 26 more rows
```

For a quick sanity check, let’s make sure that the points for the
individual events (the variables with the `_pts` suffixes) add up to
`mp_points`. This could be *a bit* off, due to various penalties in the
rules and regulations that, theoretically, might be deducted from the
final score and not from an individual event. But that should be an
anomaly.

``` r
m_mp_finals %>%
  select(c(rank, ends_with("_pts"), mp_points)) %>%
  group_by(rank) %>%
  mutate("event_pt_sum" = sum(fencing_pts, swim_pts, riding_pts, laser_run_pts))
#> # A tibble: 36 x 7
#> # Groups:   rank [36]
#>     rank fencing_pts swim_pts riding_pts laser_run_pts mp_points event_pt_sum
#>    <dbl>       <dbl>    <dbl>      <dbl>         <dbl>     <dbl>        <dbl>
#>  1     1         256      302        300           577      1435         1435
#>  2     2         262      294        300           570      1426         1426
#>  3     3         196      305        292           624      1417         1417
#>  4     4         227      284        297           604      1412         1412
#>  5     5         217      296        300           596      1409         1409
#>  6     6         214      306        284           603      1407         1407
#>  7     7         244      300        286           575      1405         1405
#>  8     8         228      300        273           602      1403         1403
#>  9     9         233      304        259           605      1401         1401
#> 10    10         214      297        272           615      1398         1398
#> # … with 26 more rows
```
…
